<svg viewBox="4.0 1.0 9.12 15.99">
    <path transform="translate(2.84, -3.22)"
          d="M 1.162109375 12.21945190429688 C 1.162109375 12.36072540283203 1.186190247535706 12.49076271057129 1.234351992607117 12.60956287384033 C 1.282513499259949 12.72835922241211 1.364388704299927 12.83913135528564 1.479976415634155 12.9418773651123 L 8.62717342376709 19.94458770751953 C 8.813397407531738 20.1243896484375 9.041363716125488 20.21429443359375 9.311069488525391 20.21429443359375 C 9.490873336791992 20.21429443359375 9.654623031616211 20.17416000366211 9.802318572998047 20.0938892364502 C 9.950014114379883 20.01362037658691 10.0672082901001 19.89803123474121 10.15390014648438 19.74712562561035 C 10.2405891418457 19.59622001647949 10.283935546875 19.43407440185547 10.283935546875 19.26069068908691 C 10.283935546875 18.99740791320801 10.18440246582031 18.76623153686523 9.985334396362305 18.56716346740723 L 3.483503580093384 12.21945190429688 L 9.985334396362305 5.871738910675049 C 10.18440246582031 5.672670364379883 10.283935546875 5.441494464874268 10.283935546875 5.178210258483887 C 10.283935546875 4.998407363891602 10.2405891418457 4.834657669067383 10.15390014648438 4.686961650848389 C 10.0672082901001 4.539264678955078 9.950014114379883 4.425283432006836 9.802318572998047 4.34501314163208 C 9.654623031616211 4.264742851257324 9.490873336791992 4.224609375 9.311069488525391 4.224609375 C 9.041363716125488 4.224609375 8.813397407531738 4.314511299133301 8.62717342376709 4.494314193725586 L 1.479976415634155 11.49702548980713 C 1.364388704299927 11.59977149963379 1.282513499259949 11.71054172515869 1.234351992607117 11.82934188842773 C 1.186190247535706 11.94814014434814 1.162109375 12.07817649841309 1.162109375 12.21945190429688 Z"
          fill="#000000" stroke="none" stroke-width="1" stroke-miterlimit="10" stroke-linecap="butt"/>
</svg>